Credit analysis
…
tidy(defaultmodel)

## # A tibble: 50 x 5
##    term                               estimate std.error statistic  p.value
##    <chr>                                 <dbl>     <dbl>     <dbl>    <dbl>
##  1 (Intercept)                         2.81e+0  1.65         1.70  8.90e- 2
##  2 observation_id                     -1.19e-4  0.000361    -0.330 7.42e- 1
##  3 checking_balance> 200 DM            1.09e+0  0.432        2.52  1.19e- 2
##  4 checking_balance1 - 200 DM          6.66e-1  0.269        2.47  1.34e- 2
##  5 checking_balanceunknown             2.03e+0  0.292        6.96  3.48e-12
##  6 months_loan_duration               -1.98e-2  0.0114      -1.74  8.25e- 2
##  7 credit_historydelayed              -9.45e-1  0.404       -2.34  1.93e- 2
##  8 credit_historyfully repaid         -1.86e+0  0.508       -3.67  2.42e- 4
##  9 credit_historyfully repaid this b~ -1.31e+0  0.563       -2.32  2.04e- 2
## 10 credit_historyrepaid               -7.90e-1  0.310       -2.55  1.08e- 2
## # ... with 40 more rows
…
